Line_Robot_2/simulation/qsim/Line_Robot_2.msim.vcd
$comment
	File created using the following command:
		vcd file Line_Robot_2.msim.vcd -direction
$end
$date
	Thu Feb 20 14:28:45 2025
$end
$version
	ModelSim Version 10.5b
$end
$timescale
	1ps
$end

$scope module line_robot_2_vhd_vec_tst $end
$var wire 1 ! clock $end
$var wire 1 " MD0 $end
$var wire 1 # MD1 $end
$var wire 1 $ ME0 $end
$var wire 1 % ME1 $end
$var wire 1 & SD $end
$var wire 1 ' SE $end
$var wire 1 ( STATE0 $end
$var wire 1 ) STATE1 $end
$var wire 1 * STATE2 $end

$scope module i1 $end
$var wire 1 + gnd $end
$var wire 1 , vcc $end
$var wire 1 - unknown $end
$var wire 1 . devoe $end
$var wire 1 / devclrn $end
$var wire 1 0 devpor $end
$var wire 1 1 ww_devoe $end
$var wire 1 2 ww_devclrn $end
$var wire 1 3 ww_devpor $end
$var wire 1 4 ww_ME1 $end
$var wire 1 5 ww_clock $end
$var wire 1 6 ww_SE $end
$var wire 1 7 ww_SD $end
$var wire 1 8 ww_ME0 $end
$var wire 1 9 ww_MD1 $end
$var wire 1 : ww_MD0 $end
$var wire 1 ; ww_STATE2 $end
$var wire 1 < ww_STATE1 $end
$var wire 1 = ww_STATE0 $end
$var wire 1 > \~QUARTUS_CREATED_ADC1~_CHSEL_bus\ [4] $end
$var wire 1 ? \~QUARTUS_CREATED_ADC1~_CHSEL_bus\ [3] $end
$var wire 1 @ \~QUARTUS_CREATED_ADC1~_CHSEL_bus\ [2] $end
$var wire 1 A \~QUARTUS_CREATED_ADC1~_CHSEL_bus\ [1] $end
$var wire 1 B \~QUARTUS_CREATED_ADC1~_CHSEL_bus\ [0] $end
$var wire 1 C \~QUARTUS_CREATED_ADC2~_CHSEL_bus\ [4] $end
$var wire 1 D \~QUARTUS_CREATED_ADC2~_CHSEL_bus\ [3] $end
$var wire 1 E \~QUARTUS_CREATED_ADC2~_CHSEL_bus\ [2] $end
$var wire 1 F \~QUARTUS_CREATED_ADC2~_CHSEL_bus\ [1] $end
$var wire 1 G \~QUARTUS_CREATED_ADC2~_CHSEL_bus\ [0] $end
$var wire 1 H \clock~inputclkctrl_INCLK_bus\ [3] $end
$var wire 1 I \clock~inputclkctrl_INCLK_bus\ [2] $end
$var wire 1 J \clock~inputclkctrl_INCLK_bus\ [1] $end
$var wire 1 K \clock~inputclkctrl_INCLK_bus\ [0] $end
$var wire 1 L \~QUARTUS_CREATED_GND~I_combout\ $end
$var wire 1 M \~QUARTUS_CREATED_UNVM~~busy\ $end
$var wire 1 N \~QUARTUS_CREATED_ADC1~~eoc\ $end
$var wire 1 O \~QUARTUS_CREATED_ADC2~~eoc\ $end
$var wire 1 P \ME1~output_o\ $end
$var wire 1 Q \ME0~output_o\ $end
$var wire 1 R \MD1~output_o\ $end
$var wire 1 S \MD0~output_o\ $end
$var wire 1 T \STATE2~output_o\ $end
$var wire 1 U \STATE1~output_o\ $end
$var wire 1 V \STATE0~output_o\ $end
$var wire 1 W \clock~input_o\ $end
$var wire 1 X \clock~inputclkctrl_outclk\ $end
$var wire 1 Y \SD~input_o\ $end
$var wire 1 Z \SE~input_o\ $end
$var wire 1 [ \inst3|reg_fstate~0_combout\ $end
$var wire 1 \ \inst3|fstate.FULL~q\ $end
$var wire 1 ] \inst3|Selector0~0_combout\ $end
$var wire 1 ^ \inst3|fstate.STOP~q\ $end
$var wire 1 _ \inst3|Selector3~0_combout\ $end
$var wire 1 ` \inst3|Selector3~1_combout\ $end
$var wire 1 a \inst3|fstate.TURN_D~q\ $end
$var wire 1 b \inst3|ME1~0_combout\ $end
$var wire 1 c \inst3|Selector2~0_combout\ $end
$var wire 1 d \inst3|fstate.TURN_E~q\ $end
$var wire 1 e \inst3|Selector4~0_combout\ $end
$var wire 1 f \inst3|fstate.SEARCH_E~q\ $end
$var wire 1 g \inst3|WideOr5~0_combout\ $end
$var wire 1 h \inst3|MD1~0_combout\ $end
$var wire 1 i \inst3|Selector5~0_combout\ $end
$var wire 1 j \inst3|fstate.SEARCH_D~q\ $end
$var wire 1 k \inst3|MD0~0_combout\ $end
$var wire 1 l \inst3|STATE2~0_combout\ $end
$var wire 1 m \inst3|STATE1~0_combout\ $end
$var wire 1 n \inst3|WideOr5~combout\ $end
$var wire 1 o \inst3|ALT_INV_WideOr5~combout\ $end
$var wire 1 p \inst3|ALT_INV_MD0~0_combout\ $end
$upscope $end
$upscope $end
$enddefinitions $end
#0
$dumpvars
0!
0"
0#
0$
0%
0&
0'
0(
0)
0*
0+
1,
x-
1.
1/
10
11
12
13
04
05
06
07
08
09
0:
0;
0<
0=
0L
zM
zN
zO
0P
0Q
0R
0S
0T
0U
0V
0W
0X
0Y
0Z
0[
0\
0]
0^
1_
0`
0a
0b
0c
0d
0e
0f
0g
0h
0i
0j
1k
0l
0m
1n
0o
0p
1H
1I
1J
0K
0>
0?
0@
0A
0B
0C
0D
0E
0F
0G
$end
#500000
1!
15
1W
1K
1X
#1000000
0!
05
0W
0K
0X
#1500000
1!
15
1W
1K
1X
#2000000
0!
05
0W
0K
0X
#2500000
1!
15
1W
1K
1X
#3000000
0!
05
0W
0K
0X
#3500000
1!
15
1W
1K
1X
#4000000
0!
05
0W
0K
0X
#4500000
1!
15
1W
1K
1X
#5000000
0!
05
0W
0K
0X
#5120000
1'
1&
16
17
1Y
1Z
1[
1]
#5500000
1!
15
1W
1K
1X
1\
1^
1g
0k
0n
1b
1h
1o
1p
1R
1P
1Q
1S
1V
19
14
18
1:
1=
1#
1%
1$
1"
1(
#6000000
0!
05
0W
0K
0X
#6500000
1!
15
1W
1K
1X
#7000000
0!
05
0W
0K
0X
#7500000
1!
15
1W
1K
1X
#8000000
0!
05
0W
0K
0X
#8500000
1!
15
1W
1K
1X
#9000000
0!
05
0W
0K
0X
#9500000
1!
15
1W
1K
1X
#10000000
0!
05
0W
0K
0X
#10500000
1!
15
1W
1K
1X
#11000000
0!
05
0W
0K
0X
#11500000
1!
15
1W
1K
1X
#12000000
0!
05
0W
0K
0X
#12500000
1!
15
1W
1K
1X
#13000000
0!
05
0W
0K
0X
#13440000
0'
0&
06
07
0Y
0Z
0[
0]
#13500000
1!
15
1W
1K
1X
0\
0^
0g
1k
1n
0b
0h
0o
0p
0R
0P
0Q
0S
0V
09
04
08
0:
0=
0#
0%
0$
0"
0(
#14000000
0!
05
0W
0K
0X
#14500000
1!
15
1W
1K
1X
#15000000
0!
05
0W
0K
0X
#15500000
1!
15
1W
1K
1X
#16000000
0!
05
0W
0K
0X
#16500000
1!
15
1W
1K
1X
#17000000
0!
05
0W
0K
0X
#17500000
1!
15
1W
1K
1X
#18000000
0!
05
0W
0K
0X
#18500000
1!
15
1W
1K
1X
#19000000
0!
05
0W
0K
0X
#19500000
1!
15
1W
1K
1X
#20000000
0!
05
0W
0K
0X
#20480000
1'
1&
16
17
1Y
1Z
1[
1]
#20500000
1!
15
1W
1K
1X
1\
1^
1g
0k
0n
1b
1h
1o
1p
1R
1P
1Q
1S
1V
19
14
18
1:
1=
1#
1%
1$
1"
1(
#21000000
0!
05
0W
0K
0X
#21500000
1!
15
1W
1K
1X
#22000000
0!
05
0W
0K
0X
#22500000
1!
15
1W
1K
1X
#23000000
0!
05
0W
0K
0X
#23500000
1!
15
1W
1K
1X
#24000000
0!
05
0W
0K
0X
#24500000
1!
15
1W
1K
1X
#25000000
0!
05
0W
0K
0X
#25500000
1!
15
1W
1K
1X
#25600000
0&
07
0Y
0[
1c
#26000000
0!
05
0W
0K
0X
#26500000
1!
15
1W
1K
1X
0\
1d
1m
1n
0_
0b
0o
0P
1U
0V
04
1<
0=
0%
1)
0(
#27000000
0!
05
0W
0K
0X
#27500000
1!
15
1W
1K
1X
#28000000
0!
05
0W
0K
0X
#28500000
1!
15
1W
1K
1X
#29000000
0!
05
0W
0K
0X
#29500000
1!
15
1W
1K
1X
#30000000
0!
05
0W
0K
0X
#30500000
1!
15
1W
1K
1X
#30720000
1&
17
1Y
1[
0c
#31000000
0!
05
0W
0K
0X
#31500000
1!
15
1W
1K
1X
1\
0d
0m
0n
1_
1b
1o
1P
0U
1V
14
0<
1=
1%
0)
1(
#32000000
0!
05
0W
0K
0X
#32500000
1!
15
1W
1K
1X
#33000000
0!
05
0W
0K
0X
#33500000
1!
15
1W
1K
1X
#34000000
0!
05
0W
0K
0X
#34500000
1!
15
1W
1K
1X
#35000000
0!
05
0W
0K
0X
#35500000
1!
15
1W
1K
1X
#36000000
0!
05
0W
0K
0X
#36500000
1!
15
1W
1K
1X
#37000000
0!
05
0W
0K
0X
#37120000
0'
06
0Z
0[
1`
#37500000
1!
15
1W
1K
1X
0\
1a
1m
0_
0h
0R
1U
09
1<
0#
1)
#38000000
0!
05
0W
0K
0X
#38500000
1!
15
1W
1K
1X
#39000000
0!
05
0W
0K
0X
#39500000
1!
15
1W
1K
1X
#40000000
0!
05
0W
0K
0X
#40500000
1!
15
1W
1K
1X
#40960000
1'
16
1Z
1[
0`
#41000000
0!
05
0W
0K
0X
#41500000
1!
15
1W
1K
1X
1\
0a
0m
1_
1h
1R
0U
19
0<
1#
0)
#42000000
0!
05
0W
0K
0X
#42500000
1!
15
1W
1K
1X
#43000000
0!
05
0W
0K
0X
#43500000
1!
15
1W
1K
1X
#44000000
0!
05
0W
0K
0X
#44500000
1!
15
1W
1K
1X
#45000000
0!
05
0W
0K
0X
#45500000
1!
15
1W
1K
1X
#46000000
0!
05
0W
0K
0X
#46500000
1!
15
1W
1K
1X
#47000000
0!
05
0W
0K
0X
#47360000
0&
07
0Y
0[
1c
#47500000
1!
15
1W
1K
1X
0\
1d
1m
1n
0_
0b
0o
0P
1U
0V
04
1<
0=
0%
1)
0(
#48000000
0!
05
0W
0K
0X
#48500000
1!
15
1W
1K
1X
#49000000
0!
05
0W
0K
0X
#49500000
1!
15
1W
1K
1X
#50000000
0!
05
0W
0K
0X
#50500000
1!
15
1W
1K
1X
#51000000
0!
05
0W
0K
0X
#51200000
0'
06
0Z
0c
1e
#51500000
1!
15
1W
1K
1X
0d
1f
0g
1l
0h
0m
0U
0R
1T
0Q
0<
09
1;
08
0)
0#
1*
0$
#52000000
0!
05
0W
0K
0X
#52500000
1!
15
1W
1K
1X
#53000000
0!
05
0W
0K
0X
#53500000
1!
15
1W
1K
1X
#54000000
0!
05
0W
0K
0X
#54500000
1!
15
1W
1K
1X
#55000000
0!
05
0W
0K
0X
#55500000
1!
15
1W
1K
1X
#56000000
0!
05
0W
0K
0X
#56500000
1!
15
1W
1K
1X
#57000000
0!
05
0W
0K
0X
#57500000
1!
15
1W
1K
1X
#58000000
0!
05
0W
0K
0X
#58240000
1'
1&
16
17
1Y
1Z
1[
0e
#58500000
1!
15
1W
1K
1X
1\
0f
1g
0l
0n
1_
1b
1h
1o
1R
1P
0T
1Q
1V
19
14
0;
18
1=
1#
1%
0*
1$
1(
#59000000
0!
05
0W
0K
0X
#59500000
1!
15
1W
1K
1X
#60000000
0!
05
0W
0K
0X
#60500000
1!
15
1W
1K
1X
#61000000
0!
05
0W
0K
0X
#61500000
1!
15
1W
1K
1X
#62000000
0!
05
0W
0K
0X
#62500000
1!
15
1W
1K
1X
#63000000
0!
05
0W
0K
0X
#63500000
1!
15
1W
1K
1X
#64000000
0!
0'
05
06
0Z
0W
0K
0[
1`
0X
#64500000
1!
15
1W
1K
1X
0\
1a
1m
0_
0h
0R
1U
09
1<
0#
1)
#65000000
0!
05
0W
0K
0X
#65500000
1!
15
1W
1K
1X
#66000000
0!
05
0W
0K
0X
#66500000
1!
15
1W
1K
1X
#67000000
0!
05
0W
0K
0X
#67500000
1!
15
1W
1K
1X
#68000000
0!
05
0W
0K
0X
#68480000
0&
07
0Y
0`
1i
#68500000
1!
15
1W
1K
1X
0a
1j
1k
1l
0b
0m
0p
0U
0P
1T
0S
0<
04
1;
0:
0)
0%
1*
0"
#69000000
0!
05
0W
0K
0X
#69500000
1!
15
1W
1K
1X
#70000000
0!
05
0W
0K
0X
#70500000
1!
15
1W
1K
1X
#71000000
0!
05
0W
0K
0X
#71500000
1!
15
1W
1K
1X
#72000000
0!
05
0W
0K
0X
#72500000
1!
15
1W
1K
1X
#73000000
0!
05
0W
0K
0X
#73500000
1!
15
1W
1K
1X
#74000000
0!
05
0W
0K
0X
#74500000
1!
15
1W
1K
1X
#74880000
1&
1'
17
16
1Z
1Y
1[
0i
#75000000
0!
05
0W
0K
0X
#75500000
1!
15
1W
1K
1X
1\
0j
0k
0l
1_
1b
1h
1p
1R
1P
0T
1S
19
14
0;
1:
1#
1%
0*
1"
#76000000
0!
05
0W
0K
0X
#76500000
1!
15
1W
1K
1X
#77000000
0!
05
0W
0K
0X
#77500000
1!
15
1W
1K
1X
#78000000
0!
05
0W
0K
0X
#78500000
1!
15
1W
1K
1X
#79000000
0!
05
0W
0K
0X
#79500000
1!
15
1W
1K
1X
#80000000
0!
05
0W
0K
0X
#80500000
1!
15
1W
1K
1X
#81000000
0!
05
0W
0K
0X
#81500000
1!
15
1W
1K
1X
#82000000
0!
05
0W
0K
0X
#82500000
1!
15
1W
1K
1X
#83000000
0!
05
0W
0K
0X
#83500000
1!
15
1W
1K
1X
#83840000
0&
0'
07
06
0Z
0Y
0[
0]
#84000000
0!
05
0W
0K
0X
#84500000
1!
15
1W
1K
1X
0\
0^
0g
1k
1n
0b
0h
0o
0p
0R
0P
0Q
0S
0V
09
04
08
0:
0=
0#
0%
0$
0"
0(
#85000000
0!
05
0W
0K
0X
#85500000
1!
15
1W
1K
1X
#86000000
0!
05
0W
0K
0X
#86500000
1!
15
1W
1K
1X
#87000000
0!
05
0W
0K
0X
#87500000
1!
15
1W
1K
1X
#88000000
0!
05
0W
0K
0X
#88500000
1!
15
1W
1K
1X
#89000000
0!
05
0W
0K
0X
#89500000
1!
15
1W
1K
1X
#90000000
0!
05
0W
0K
0X
#90500000
1!
15
1W
1K
1X
#91000000
0!
05
0W
0K
0X
#91500000
1!
15
1W
1K
1X
#92000000
0!
05
0W
0K
0X
#92500000
1!
15
1W
1K
1X
#93000000
0!
05
0W
0K
0X
#93500000
1!
15
1W
1K
1X
#94000000
0!
05
0W
0K
0X
#94500000
1!
15
1W
1K
1X
#95000000
0!
05
0W
0K
0X
#95500000
1!
15
1W
1K
1X
#96000000
0!
05
0W
0K
0X
#96500000
1!
15
1W
1K
1X
#97000000
0!
05
0W
0K
0X
#97500000
1!
15
1W
1K
1X
#98000000
0!
05
0W
0K
0X
#98500000
1!
15
1W
1K
1X
#99000000
0!
05
0W
0K
0X
#99500000
1!
15
1W
1K
1X
