Line_Robot_1/simulation/qsim/Line_Robot.msim.vcd
$comment
	File created using the following command:
		vcd file Line_Robot.msim.vcd -direction
$end
$date
	Wed Feb 19 23:09:21 2025
$end
$version
	ModelSim Version 10.5b
$end
$timescale
	1ps
$end

$scope module Block1_vlg_vec_tst $end
$var reg 1 ! CLK $end
$var reg 1 " SD $end
$var reg 1 # SE $end
$var wire 1 $ MD1 $end
$var wire 1 % MD2 $end
$var wire 1 & ME1 $end
$var wire 1 ' ME2 $end

$scope module i1 $end
$var wire 1 ( gnd $end
$var wire 1 ) vcc $end
$var wire 1 * unknown $end
$var tri1 1 + devclrn $end
$var tri1 1 , devpor $end
$var tri1 1 - devoe $end
$var wire 1 . ~QUARTUS_CREATED_GND~I_combout $end
$var wire 1 / ~QUARTUS_CREATED_UNVM~~busy $end
$var wire 1 0 ~QUARTUS_CREATED_ADC1~~eoc $end
$var wire 1 1 ~QUARTUS_CREATED_ADC2~~eoc $end
$var wire 1 2 ME2~output_o $end
$var wire 1 3 ME1~output_o $end
$var wire 1 4 MD2~output_o $end
$var wire 1 5 MD1~output_o $end
$var wire 1 6 CLK~input_o $end
$var wire 1 7 CLK~inputclkctrl_outclk $end
$var wire 1 8 SD~input_o $end
$var wire 1 9 SE~input_o $end
$var wire 1 : inst|process_1~0_combout $end
$var wire 1 ; inst|fstate.TURN_E~q $end
$var wire 1 < inst|process_1~1_combout $end
$var wire 1 = inst|fstate.STOP~q $end
$var wire 1 > inst|ME2~0_combout $end
$var wire 1 ? inst|process_1~2_combout $end
$var wire 1 @ inst|fstate.TURN_D~q $end
$var wire 1 A inst|MD2~0_combout $end
$upscope $end
$upscope $end
$enddefinitions $end
#0
$dumpvars
0!
0"
0#
0$
0%
0&
0'
0(
1)
x*
1+
1,
1-
0.
z/
z0
z1
02
03
04
05
06
07
08
09
0:
0;
0<
0=
1>
0?
0@
1A
$end
#500000
1!
16
17
#1000000
0!
06
07
#1500000
1!
16
17
#2000000
0!
06
07
#2500000
1!
16
17
#3000000
0!
06
07
#3500000
1!
16
17
#4000000
0!
06
07
#4500000
1!
16
17
#5000000
0!
06
07
#5500000
1!
16
17
#6000000
0!
06
07
#6500000
1!
16
17
#7000000
0!
06
07
#7040000
1#
1"
18
19
1<
#7500000
1!
16
17
1=
13
15
0A
0>
1$
1&
12
14
1%
1'
#8000000
0!
06
07
#8500000
1!
16
17
#9000000
0!
06
07
#9500000
1!
16
17
#10000000
0!
06
07
#10500000
1!
16
17
#11000000
0!
06
07
#11500000
1!
16
17
#12000000
0!
06
07
#12500000
1!
16
17
#13000000
0!
06
07
#13500000
1!
16
17
#14000000
0!
06
07
#14500000
1!
16
17
#15000000
0!
06
07
#15500000
1!
16
17
#16000000
0!
06
07
#16500000
1!
16
17
#17000000
0!
06
07
#17500000
1!
16
17
#18000000
0!
06
07
#18500000
1!
16
17
#19000000
0!
06
07
#19500000
1!
16
17
#20000000
0!
06
07
#20500000
1!
16
17
#21000000
0!
06
07
#21120000
0#
0"
08
09
0<
#21500000
1!
16
17
0=
03
05
1A
1>
0$
0&
02
04
0%
0'
#22000000
0!
06
07
#22500000
1!
16
17
#23000000
0!
06
07
#23500000
1!
16
17
#24000000
0!
06
07
#24500000
1!
16
17
#25000000
0!
06
07
#25500000
1!
16
17
#26000000
0!
06
07
#26500000
1!
16
17
#27000000
0!
06
07
#27500000
1!
16
17
#28000000
0!
06
07
#28500000
1!
16
17
#28800000
1#
19
1<
1:
#29000000
0!
06
07
#29500000
1!
16
17
1;
1=
13
15
0A
1$
1&
14
1%
#30000000
0!
06
07
#30500000
1!
16
17
#31000000
0!
06
07
#31500000
1!
16
17
#32000000
0!
06
07
#32500000
1!
16
17
#33000000
0!
06
07
#33500000
1!
16
17
#34000000
0!
06
07
#34500000
1!
16
17
#35000000
0!
06
07
#35500000
1!
16
17
#36000000
0!
06
07
#36500000
1!
16
17
#37000000
0!
06
07
#37500000
1!
16
17
#38000000
0!
06
07
#38500000
1!
16
17
#39000000
0!
06
07
#39500000
1!
16
17
#40000000
0!
06
07
#40500000
1!
16
17
#40960000
0#
09
0<
0:
#41000000
0!
06
07
#41500000
1!
16
17
0;
0=
03
05
1A
0$
0&
04
0%
#42000000
0!
06
07
#42500000
1!
16
17
#43000000
0!
06
07
#43500000
1!
16
17
#44000000
0!
06
07
#44500000
1!
16
17
#45000000
0!
06
07
#45500000
1!
16
17
#46000000
0!
06
07
#46500000
1!
16
17
#47000000
0!
06
07
#47500000
1!
16
17
#48000000
1"
0!
06
18
07
1?
1<
#48500000
1!
16
17
1@
1=
13
15
0>
1$
1&
12
1'
#49000000
0!
06
07
#49500000
1!
16
17
#50000000
0!
06
07
#50500000
1!
16
17
#51000000
0!
06
07
#51500000
1!
16
17
#52000000
0!
06
07
#52500000
1!
16
17
#53000000
0!
06
07
#53500000
1!
16
17
#54000000
0!
06
07
#54500000
1!
16
17
#55000000
0!
06
07
#55500000
1!
16
17
#56000000
0!
06
07
#56500000
1!
16
17
#57000000
0!
06
07
#57500000
1!
16
17
#58000000
0!
06
07
#58500000
1!
16
17
#59000000
0!
06
07
#59500000
1!
16
17
#60000000
0!
06
07
#60500000
1!
16
17
#61000000
0!
06
07
#61500000
1!
16
17
#62000000
0!
06
07
#62500000
1!
16
17
#63000000
0!
06
07
#63500000
1!
16
17
#64000000
0!
06
07
#64500000
1!
16
17
#64640000
0"
08
0?
0<
#65000000
0!
06
07
#65500000
1!
16
17
0@
0=
03
05
1>
0$
0&
02
0'
#66000000
0!
06
07
#66500000
1!
16
17
#67000000
0!
06
07
#67500000
1!
16
17
#68000000
0!
06
07
#68500000
1!
16
17
#69000000
0!
06
07
#69500000
1!
16
17
#70000000
0!
06
07
#70500000
1!
16
17
#71000000
0!
06
07
#71500000
1!
16
17
#72000000
0!
06
07
#72500000
1!
16
17
#73000000
0!
06
07
#73500000
1!
16
17
#74000000
0!
06
07
#74500000
1!
16
17
#75000000
0!
06
07
#75500000
1!
16
17
#76000000
0!
06
07
#76500000
1!
16
17
#77000000
0!
06
07
#77500000
1!
16
17
#78000000
0!
06
07
#78500000
1!
16
17
#79000000
0!
06
07
#79500000
1!
16
17
#80000000
0!
06
07
#80500000
1!
16
17
#81000000
0!
06
07
#81500000
1!
16
17
#82000000
0!
06
07
#82500000
1!
16
17
#83000000
0!
06
07
#83500000
1!
16
17
#84000000
0!
06
07
#84500000
1!
16
17
#85000000
0!
06
07
#85500000
1!
16
17
#86000000
0!
06
07
#86500000
1!
16
17
#87000000
0!
06
07
#87500000
1!
16
17
#88000000
0!
06
07
#88500000
1!
16
17
#89000000
0!
06
07
#89500000
1!
16
17
#90000000
0!
06
07
#90500000
1!
16
17
#91000000
0!
06
07
#91500000
1!
16
17
#92000000
0!
06
07
#92500000
1!
16
17
#93000000
0!
06
07
#93500000
1!
16
17
#94000000
0!
06
07
#94500000
1!
16
17
#95000000
0!
06
07
#95500000
1!
16
17
#96000000
0!
06
07
#96500000
1!
16
17
#97000000
0!
06
07
#97500000
1!
16
17
#98000000
0!
06
07
#98500000
1!
16
17
#99000000
0!
06
07
#99500000
1!
16
17
